…
    ## $artists
    ## # A tibble: 3,532 x 9
    ##       id name  gender dates yearOfBirth yearOfDeath placeOfBirth placeOfDeath
    ##    <dbl> <chr> <chr>  <chr>       <dbl>       <dbl> <chr>        <chr>       
    ##  1 10093 Abak… Female born…        1930          NA Polska       <NA>        
    ##  2     0 Abbe… Male   1852…        1852        1911 Philadelphi… London, Uni…
    ##  3  2756 Abbo… Female 1898…        1898        1991 Springfield… Monson, Uni…
    ##  4     1 Abbo… Male   1760…        1760        1803 Leicestersh… London, Uni…
    ##  5   622 Abra… Male   born…        1935          NA Wigan, Unit… <NA>        
    ##  6  2606 Absa… Male   1964…        1964        1993 Tel Aviv-Ya… Paris, Fran…
    ##  7  9550 Abts… Female born…        1967          NA Kiel, Deuts… <NA>        
    ##  8   623 Acco… Male   born…        1940          NA New York, U… <NA>        
    ##  9   624 Ackl… Male   1947…        1947        2014 Isleworth, … <NA>        
    ## 10   625 Ackr… Male   born…        1938          NA Leeds, Unit… <NA>        
    ## # … with 3,522 more rows, and 1 more variable: url <chr>
    ## 
    ## $artwork
    ## # A tibble: 69,201 x 20
    ##       id accession_number artist artistRole artistId title dateText medium
    ##    <dbl> <chr>            <chr>  <chr>         <dbl> <chr> <chr>    <chr> 
    ##  1  1035 A00001           Blake… artist           38 A Fi… date no… Water…
    ##  2  1036 A00002           Blake… artist           38 Two … date no… Graph…
    ##  3  1037 A00003           Blake… artist           38 The … ?c.1785  Graph…
    ##  4  1038 A00004           Blake… artist           38 Six … date no… Graph…
    ##  5  1039 A00005           Blake… artist           39 The … 1826–7,… Line …
    ##  6  1040 A00006           Blake… artist           39 Ciam… 1826–7,… Line …
    ##  7  1041 A00007           Blake… artist           39 The … 1826–7,… Line …
    ##  8  1042 A00008           Blake… artist           39 The … 1826–7,… Line …
    ##  9  1043 A00009           Blake… artist           39 The … 1826–7,… Line …
    ## 10  1044 A00010           Blake… artist           39 The … 1826–7,… Line …
    ## # … with 69,191 more rows, and 12 more variables: creditLine <chr>, year <dbl>,
    ## #   acquisitionYear <dbl>, dimensions <chr>, width <dbl>, height <dbl>,
    ## #   depth <dbl>, units <chr>, inscription <chr>, thumbnailCopyright <lgl>,
    ## #   thumbnailUrl <chr>, url <chr>
…
